{
  "asset_type_id": "33931",
  "asset_serial": "{{asset_serial}}",
  "name": "Apple iPod Touch",
  "customer_id": "7294818",
  "properties": {
    "Manufacturer": "{{manufacturer}}",
    "Model": "{{model}}",
    "Color": "{{color}}"
  }
}