{
  "asset_type_id": "33572",
  "asset_serial": "{{asset_serial}}",
  "name": "Google Nexus 6p",
  "customer_id": "7294818",
  "properties": {
    "Manufacturer": "{{manufacturer}}",
    "Model": "{{model}}",
    "Color": "{{color}}",
    "Network": "{{network}}",
    "IMEI": "{{imei}}"
  }
}